{
  "keywords": {
    "ncd_screening": "NCD Screening",
    "user": "User",
    "admin": "Admin",
    "username": "Username",
    "password": "Password",
    "remember_me": "Remember me",
    "login_as_user": "Login as User",
    "login_as_admin": "Login as Admin",
    "change_language": "Change Language",
    "select_language": "Select Language:",
    "cancel": "Cancel",
    "apply": "Apply",
    "update": "Update",
    "cancel_lang": "Cancel",
    "apply_lang": "Apply",
    "help": "Help",
    "help_file": "ncd_help.pdf",
    "about": "About",
    "logout": "Logout",
    "logout_lang": "Logout",
    "admin_home": "Admin Home",
    "users": "Users",
    "empty": "(Empty)",
    "edit": "Edit",
    "remove": "Remove",
    "import_data": "Import data",
    "camp_settings": "Camp Settings",
    "camp_name": "Camp Name:",
    "enter": "Enter",
    "start_date": "Start date",
    "end_date": "End date",
    "door_to_door": "Door to door",
    "camp_screening": "Camp Screening",
    "print_id_after_registration": "Print ID after every registration",
    "app_version": "App Version:",
    "username_title": "Username:",
    "password_title": "Password:",
    "user_type": "User type:",
    "allow_prescription_entry": "Allow prescription entry",
    "is_demo_user": "Is demo user",
    "demo_user": "Demo User",
    "demo": "Demo",
    "registration_id": "Registration ID",
    "search": "Search",
    "new_profile": "New Profile:",
    "clear": "Clear",
    "scan_from_qr": "Scan from QR:",
    "scan_qr": "Scan QR",
    "name": "Name:",
    "full_name": "Full Name:",
    "enter_full_name": "Enter full name",
    "gender": "Gender:",
    "male": "Male",
    "female": "Female",
    "other": "Other",
    "date_of_birth_title": "Date of birth / age:",
    "date_of_birth": "Date of birth",
    "age": "Age",
    "or": "Or",
    "years": "Year(s)",
    "identity": "Identity:",
    "identity_type": "Identity type:",
    "enter_identity_type": "Enter identity type",
    "identity_number": "Identity number",
    "select": "Select",
    "none": "None",
    "phone_number": "Phone number:",
    "enter_phone_number": "Enter phone number",
    "email_id": "Email ID:",
    "enter_email_id": "Enter Email ID",
    "house_title": "House:",
    "select_house": "Select house",
    "notes_title": "Notes: ",
    "save": "Save",
    "house_number": "House Number:",
    "street": "Street:",
    "post": "Post: ",
    "locality": "Locality:",
    "district": "District:",
    "state": "State:",
    "country": "Country",
    "pin_code": "PIN Code:",
    "name_of_head_of_house": "Name of Head of House:",
    "name_of_spouse_of_head_of_house": "Name of Spouse of Head of House:",
    "name_of_respondent": "Name of the Respondent:",
    "total_members_in_house": "Total members in the house:",
    "total_rooms_in_house": "Total rooms in the house:",
    "house_ownership": "House ownership:",
    "house_status": "House status:",
    "own": "Own",
    "rented": "Rented",
    "ration_card": "Ration Card:",
    "health_insurance": "Health Insurance:",
    "yes": "Yes",
    "no": "No",
    "meal_timing_title": "Typically in a day how many time, do all family members eat?",
    "cooking_fuel_title": "What cooking fuel is used in the family",
    "treatment_place_title": "If anyone is sick in the house, where do you go for treatment?",
    "any_death": "Any death within a year?",
    "if_other": "If other",
    "if_yes": "If yes",
    "add_more": "+ Add more",
    "inactive": "Inactive",
    "inactive_reason": "Reason for making it inactive:",
    "statistics": "Statistics",
    "stock": "Stock",
    "my_account": "My Account",
    "sync": "Sync",
    "houses": "Houses",
    "existing_profiles": "Existing Profiles",
    "vitals": "Vitals",
    "no_data_to_sync": "No data to sync",
    "summary": "Summary",
    "survey_report": "Survey Report",
    "summary_report": "Summary Report",
    "risk_report": "Risk Report",
    "analysis_report": "Analysis Report",
    "print_vitals": "Print Vitals",
    "search_patient_hint": "Enter name / mobile / Reg. ID",
    "details": "Details:",
    "person_name": "Person name:",
    "relation_to_head_of_house": "Relation to the head of house:",
    "cause_of_death": "Cause of death:",
    "self": "Self",
    "view_survey_location": "View Survey Location",
    "marital_status": "Marital status:",
    "education": "Education:",
    "literacy": "Literacy:",
    "occupation": "Current occupation:",
    "monthly_income": "Monthly income (in ₹):",
    "house_type": "House type:",
    "languages_spoken": "Languages spoken:",
    "habits": "Habits:",
    "diseases": "Diseases:",
    "disabilities": "Disabilities:",
    "exercise": "Exercise:",
    "doing_exercise": "Doing exercise?",
    "diet": "Diet:",
    "sick_during_survey": "Sick during survey?",
    "vegetarian": "Vegetarian",
    "non_vegetarian": "Non-vegetarian",
    "vitals_range": "Vitals range:",
    "all": "All",
    "normal": "Normal",
    "not_normal": "Abnormal",
    "ordering": "Ordering:",
    "order_by_date": "Order by date",
    "order_by_hoh": "Order by Head of House",
    "generate_survey_report": "Generate Survey Report:",
    "generate_summary_report": "Generate Summary Report:",
    "generate_analysis_report": "Generate Analysis Report:",
    "date": "Date:",
    "generate": "Generate",
    "from": "From",
    "to": "To",
    "generating": "Generating...",
    "generated": "Generated successfully",
    "no_data_present": "No data present for the selected time range",
    "something_went_wrong": "Something went wrong. Please try again.",
    "open": "Open",
    "share": "Share",
    "close": "Close",
    "sync_in_progress": "Sync in progress...",
    "sync_complete": "Sync complete",
    "server_error": "Failed to sync. Please contact DHP.",
    "okay": "Okay",
    "no_internet": "Please check your internet connection and try again",
    "invalid_credentials": "Invalid credentials!",
    "exit": "Exit",
    "done": "Done",
    "confirm_exit": "Are you sure want to exit the app?",
    "format": "Format:",
    "pdf": "PDF",
    "csv": "CSV",
    "report_detailed": "Detailed (Date-wise)",
    "report_consolidated": "Consolidated",
    "view_members": "View members",
    "warning_select_date_range": "Please select date range",
    "start_date_cant_be_greater": "Start date can't be greater than end date",
    "warning_select_report_format": "Please select report format",
    "warning_select_report_type": "Please select report type",
    "warning_select_vitals_range": "Please select the vitals range",
    "warning_select_ordering": "Please select ordering",
    "graph": "Graph",
    "print": "Print",
    "screening_questions": "Screening Questions",
    "confirm_go_back": "Are you sure want to go back?",
    "go_back": "Go back",
    "confirm_save": "Please confirm before saving",
    "saved": "Saved",
    "user_inactive": "User is deactivated",
    "exported_successfully": "Exported successfully",
    "confirm_logout": "Are you sure want to logout?",
    "add_new_user": "Add new user",
    "update_user": "Update user",
    "confirm": "Confirm",
    "contact_dhp_for_enrollment": "Contact DHP for enrollment",
    "updated": "Updated",
    "new_user_added": "New user added",
    "year_of_birth": "Year of birth:",
    "cant_select_future_date": "Can't select a future date",
    "confirm_activate": "Activate this?",
    "confirm_activate_user": "Activate this user?",
    "activate": "Activate",
    "confirm_clear": "Are you sure want to clear the fields?",
    "merge_existing_data": "Merge with existing data",
    "overwrite_existing_data": "Overwrite existing data",
    "confirm_merge": "Are you sure want to import the database and merge the data?",
    "confirm_overwrite": "Are you sure want to clear the existing data and import the database?",
    "warning_enter_name": "Please enter the name",
    "warning_enter_dob": "Please enter Date of birth or Age",
    "warning_enter_gender": "Please select gender",
    "warning_enter_phone": "Please enter valid phone number",
    "warning_enter_email": "Please enter valid Email ID",
    "warning_enter_user_id": "Please enter User ID",
    "warning_enter_password": "Please enter the password",
    "warning_enter_user_type": "Please select user type",
    "warning_enter_identity_type": "Please enter identity type",
    "warning_enter_identity_number": "Please enter identity number",
    "warning_enter_valid_identity_number": "User only alphanumeric characters for identity number",
    "warning_user_exists": "User already exists",
    "warning_invalid_aadhaar_details": "Invalid Aadhaar details",
    "warning_enter_reason": "Please enter the reason",
    "warning_enter_device_number_camp_info": "Please enter device number and Camp information in the Admin Panel",
    "warning_enter_device_number": "Please enter device number in the Admin Panel",
    "warning_enter_enter_camp_info": "Please enter Camp information in the Admin Panel",
    "warning_login_credentials_expiring_soon": "Your login credentials will get expired soon. Please contact DigiHealth Platform.",
    "fields_cleared": "All fields cleared",
    "error_message_expired": "Your login credentials have expired. Please contact DigiHealth Platform.",
    "retry": "Retry",
    "enter_password": "Enter your password:",
    "sync_now": "Sync Now",
    "wrong_password": "Wrong password!",
    "warning_identity_exists": "Identity details already exist",
    "allow_camera_permissions": "Please grant camera permission to use the QR Scanner",
    "demographics_not_found": "Please grant camera permission to use the QR Scanner",
    "continue": "Continue",
    "profile_created": "New profile created",
    "confirm_save_similar": "The demographic details already exist. Please confirm before saving.",
    "enter_reg_id": "Enter registration ID",
    "house_info": "House info",
    "enter_house_info": "Please enter house information",
    "new_house": "New house",
    "edit_house_info": "Edit house info",
    "house_info_updated": "House info updated",
    "house_info_added": "House info added",
    "enter_cooking_fuel": "Please enter the cooking fuel used",
    "enter_recent_death_details": "Please fill all details about recent death",
    "enter_pin_code": "Please enter PIN code",
    "enter_ration_card": "Please enter ration card",
    "enter_insurance": "Please enter health insurance",
    "enter_treatment_place": "Please enter treatment place",
    "fetching_location": "Fetching location...",
    "view_on_map": "View on map",
    "failed_to_fetch_location": "Unable to fetch the location",
    "show_inactive": "Show inactive",
    "house_members": "House members",
    "no_results": "No results",
    "hint_search": "Enter name / mobile / Reg. ID",
    "reg_id": "Reg. ID:",
    "info": "Info",
    "sociodemographics": "Socio-demographics",
    "problems": "Problems",
    "generate_report": "Generate Report",
    "view_summary": "View Summary",
    "view_location": "View Location",
    "print_id": "Print Reg. ID",
    "edit_person_info": "Edit person info",
    "print_summary": "Print Summary",
    "missing_demographics": "Missing Demographics",
    "enter_relation_to_hoh": "Please enter relation to head of house",
    "enter_marital_status": "Please enter the marital status",
    "enter_education": "Please enter the education",
    "enter_literacy": "Please enter the literacy",
    "enter_occupation": "Please enter the occupation",
    "enter_house_type": "Please enter the house type",
    "enter_language": "Please enter the languages spoken",
    "enter_habits": "Please enter the habits",
    "enter_disease": "Please enter the disease",
    "enter_disabilities": "Please enter the disabilities",
    "confirm_remove": "Are you sure want to remove this?",
    "generate_pdf": "Generate PDF",
    "confirm_remove_user": "Remove this user?",
    "user_removed": "User removed",
    "audio_file_not_found": "Audio file doesn't exist",
    "grant_location_permission": "Please grant location permission",
    "individual_health_card": "Individual Health Card:",
    "enter_health_card": "Please enter individual health card",
    "enter_house_status": "Please enter the house status",
    "toilet_availability": "Availability of toilet:",
    "enter_toilet_availability": "Please enter availability of toilet",
    "drinking_water_source": "Source of drinking water:",
    "enter_drinking_water_source": "Please enter the source of drinking water",
    "electricity_availability": "Availability of electricity:",
    "enter_electricity_availability": "Please enter the availability of electricity",
    "motorised_vehicle": "Motorised vehicle:",
    "enter_motorised_vehicle": "Please enter the motorised vehicle details",
    "village": "Village:",
    "gram_panchayat": "Gram Panchayat:",
    "mr_number": "MR Number:",
    "export_data": "Export data",
    "similar_demographic_exists": "The demographic details already exist.",
    "total_earning_members_in_house": "How many earning members are present in your household?",
    "household_monthly_income": "What is your household monthly income?",
    "treatment_cost": "How much do you typically pay for treatment?",
    "drink_weekly": "Does anyone in your household drink more than 7 drinks per week?",
    "drugs_use": "Does anyone in your household use drugs?",
    "handicapped_present": "Are there any special needs/handicapped people in your household?",
    "handicapped_suffering": "Do you know what they suffer from?",
    "pets": "Are there any rodents or pets in the house?",
    "pets_bitten": "Have they bitten you or anyone in the household?",
    "pets_bite_action": "What steps have you taken after the bite?",
    "drinking_water_cleaning_method": "How do you clean your drinking water?",
    "bathing_toilet_facility": "What is your bathing and toilet facility?",
    "children_present_in_house": "Are there children in the house?",
    "child_health_checkup_last_done": "When was the last time your child had a health checkup?",
    "children_vaccinated": "Are your children completely vaccinated?",
    "vaccination_records_storage": "Where do you store their vaccination records?",
    "child_gender_responsibility": "Who is responsible for the gender of the child?",
    "preferred_child_gender": "What would you prefer for a child?",
    "dont_know": "Don't know",
    "enter_handicapped_suffering_from": "Please enter what they suffer from",
    "enter_pets_bite_action": "Please enter steps taken after pet bite",
    "enter_drinking_water_cleaning_methods": "Please enter water cleaning methods",
    "enter_bathing_toilet_facility": "Please enter bathing and toilet facility",
    "enter_vaccination_records_storage": "Please enter vaccination records storage method",
    "father": "Father",
    "mother": "Mother",
    "neither": "Neither",
    "boy": "Boy",
    "girl": "Girl",
    "ago": "ago",
    "do_you_take_medicines_daily": "Do you take any medicines on a daily basis? This includes any home remedies or vitamins.",
    "does_women_have_to_take_precautions": "Does a woman have to take special precautions (sleep separately, not cook, etc) when she gets her period?",
    "mobile_phone_used": "What mobile phone do you use?",
    "mobile_comfort": "How comfortable are you using your mobile phone?",
    "health_records_storage": "How do you store your health records?",
    "enter_medicine_taken_daily": "Please enter the medicines taken on a daily basis",
    "enter_health_records_storage": "Please enter the health records storage",
    "enter_mobile_user": "Please enter the mobile phone used",
    "enter_mobile_comfort": "Please enter mobile usage comfort level",
    "unsure": "Unsure",
    "last_time_test_done": "When was the last time you had test done for",
    "doctor_told_about_disease": "Has a doctor or health professional ever told you that you have",
    "do_you_take_medications_for_it": "Do you take any medications for?",
    "what_changes_have_you_made_to_control": "What changes have you made to control?",
    "last_time_test_done_other": "When was the last time you had test done for the disease",
    "doctor_told_about_disease_other": "Has a doctor or health professional ever told you that you have the disease",
    "do_you_take_medications_for_other": "Do you take any medications for the disease?",
    "what_changes_have_you_made_to_control_other": "What changes have you made to control the disease?"
  },
  "audio_files": {
    "full_name": "complete.mp3",
    "gender": "insert_blood.mp3",
    "insert_strip": "insert_strip.mp3",
    "insert_blood": "insert_blood.mp3",
    "use_new_strip": "use_new_strip.mp3",
    "error": "error.mp3",
    "wait": "wait.mp3",
    "test_complete": "complete.mp3"
  },
  "vital_popup_message": {
    "height": "",
    "weight": "",
    "blood_pressure": "",
    "blood_sugar": "Please make sure that you are using a new strip",
    "blood_group": "",
    "hemoglobin": "",
    "pulse_oximeter": "",
    "prescription": "",
    "albumin": ""
  },
  "arrays": {
    "user_types": [
      "Doctor",
      "Health Worker",
      "Other"
    ],
    "gender_types": [
      "Male",
      "Female",
      "Other"
    ],
    "identity_types": [
      "Aadhaar",
      "Voter ID",
      "DL",
      "Other",
      "None"
    ],
    "ration_types": [
      "BPL (Blue Card)",
      "APL (Orange/White Card)",
      "Antodaya(Red/Yellow Card)",
      "Other"
    ],
    "house_types": [
      "Mud floor and asbestos roof",
      "Cement floor and asbestos roof",
      "Cement floor with concrete roof",
      "Other"
    ],
    "house_ownership_types": [
      "Own",
      "Rented"
    ],
    "house_status": [
      "Open",
      "Locked",
      "Vacant",
      "Other"
    ],
    "toilet_availability": [
      "Flush toilet",
      "Pit toilet",
      "Other"
    ],
    "drinking_water_source": [
      "Tap water",
      "Hand pump",
      "Well",
      "Tank",
      "Other"
    ],
    "electricity_availability": [
      "Electricity supply",
      "Generator",
      "Solar power",
      "Kerosene lamp",
      "Other"
    ],
    "motorised_vehicle": [
      "Motor bike",
      "Car",
      "Bike",
      "Other"
    ],
    "health_cards": [
      "Ahushman",
      "Pvt hospital",
      "Other"
    ],
    "insurance_types": [
      "Aradhana",
      "Arogyashree",
      "Yeshaswini",
      "Other"
    ],
    "treatment_places": [
      "Private Clinic / RMP",
      "Ayurvedic",
      "Govt. Hospital",
      "Other"
    ],
    "meal_timings": [
      "Morning",
      "Afternoon",
      "Night"
    ],
    "cooking_fuels": [
      "Gas",
      "Bio-Gas",
      "Wood/sticks",
      "Kerosene",
      "Other"
    ],
    "relations": [
      "Self",
      "Husband",
      "Wife",
      "Brother",
      "Sister",
      "Father",
      "Mother",
      "Son",
      "Daughter",
      "Grandfather",
      "Grandmother",
      "Grandson",
      "Granddaughter",
      "Uncle",
      "Aunt",
      "Nephew",
      "Niece",
      "Mother-in-Law",
      "Father-in-Law",
      "Brother-in-Law",
      "Sister-in-Law",
      "Son-in-Law",
      "Daughter-in-Law",
      "Other"
    ],
    "marital_status": [
      "Married",
      "Unmarried",
      "Separated",
      "Divorced",
      "Widower",
      "Other"
    ],
    "education": [
      "No School",
      "Pre school",
      "High school",
      "College",
      "Graduate",
      "Post Graduate",
      "Other"
    ],
    "literacy": [
      "Illiterate",
      "Read",
      "Read & write",
      "Other"
    ],
    "occupations": [
      "Domestic work (maid)",
      "Farmer",
      "Govt. employee",
      "House wife",
      "Manual labourer",
      "Old age",
      "Pre school",
      "Pvt. employee",
      "Retired",
      "Semi-skilled",
      "Skilled",
      "Small business",
      "Student",
      "Unemployed",
      "Other",
      "None"
    ],
    "habits": [
      "Smoking",
      "Drinking",
      "Tobacco",
      "Other"
    ],
    "death_causes": [
      "Diarrhoea",
      "Pneumonia",
      "Pregnancy related",
      "Old age",
      "Heart attack",
      "Cancer",
      "Don't know",
      "Other"
    ],
    "age_units": [
      "Year",
      "Month",
      "Day"
    ],
    "diseases": [
      "Diabetes",
      "Hypertension",
      "Kidney disease",
      "Heart problem",
      "Eye problems (Vision)",
      "Menstrual problems",
      "Dental problems",
      "Anemia",
      "Other"
    ],
    "disabilities": [
      "Locomotor",
      "Mental retardation",
      "Mental illness",
      "Hearing",
      "Leprosy impaired",
      "Blindness",
      "Low vision",
      "Other"
    ],
    "inactive_reason": [
      "Wrong information",
      "Other"
    ],
    "states": [
      "Andra Pradesh",
      "Arunachal Pradesh",
      "Assam",
      "Bihar",
      "Chhattisgarh",
      "Goa",
      "Gujarat",
      "Haryana",
      "Himachal Pradesh",
      "Jammu and Kashmir",
      "Jharkhand",
      "Karnataka",
      "Kerala",
      "Madya Pradesh",
      "Maharashtra",
      "Manipur",
      "Meghalaya",
      "Mizoram",
      "Nagaland",
      "Orissa",
      "Punjab",
      "Rajasthan",
      "Sikkim",
      "Tamil Nadu",
      "Tripura",
      "Uttaranchal",
      "Uttar Pradesh",
      "West Bengal",
      "Andaman and Nicobar Islands",
      "Chandigarh",
      "Dadar and Nagar Haveli",
      "Daman and Diu",
      "Delhi",
      "Lakshadeep",
      "Pondicherry"
    ],
    "languages_spoken": [
      "English",
      "Kannada",
      "Hindi",
      "Marathi",
      "Punjabi",
      "Bengali",
      "Sanskrit",
      "Gujarati",
      "Kashmiri",
      "Oriya",
      "Tamil",
      "Telugu",
      "Malayalam",
      "Assame",
      "Manipuri",
      "Other"
    ],
    "stock_items": [
      "Sugar Strips",
      "Printer Roll",
      "Other"
    ],
    "date_ranges": [
      "Today",
      "Last 7 days",
      "Last 30 days",
      "Custom"
    ],
    "screening_questions": [
      "Eye related complaint",
      "Vision/Eye morbidity",
      "Action/due taken",
      "Any other known morbidity/Disability",
      "Notes"
    ],
    "screening_question_groups": [
      "Eye"
    ],
    "pets_bite_action": [
      "Doctor visit",
      "Home remedy",
      "None",
      "Other"
    ],
    "drinking_water_cleaning_methods": [
      "Boil",
      "Installed water filter",
      "No steps taken to clean",
      "Other"
    ],
    "bathing_toilet_facility": [
      "In house",
      "In local area at a walking distance of <= 10 min",
      "In area at walking distance of >= 10 min",
      "Other"
    ],
    "vaccination_records_storage": [
      "Physical folders in a safe location",
      "Physical folders but cannot remember location",
      "Electronically",
      "Other"
    ],
    "medicines": [
      "Multivitamins",
      "For a specific illness as prescribed by the doctor",
      "Self-prescription",
      "Other"
    ],
    "mobile_phones": [
      "Smart phone (with internet)",
      "Classical phone (no internet)",
      "No mobile phone"
    ],
    "mobile_comfort": [
      "Very comfortable",
      "Somewhat comfortable",
      "Neutral",
      "Somewhat uncomfortable",
      "Very uncomfortable",
      "Other"
    ],
    "health_records_storage": [
      "Physical folders in a safe location",
      "Physical folders but cannot remember location",
      "Electronically",
      "Other"
    ],
    "changes_to_control_disease": [
      "Multivitamins",
      "For a specific illness as prescribed by the doctor",
      "Self-prescription",
      "Other"
    ]
  },
  "vital_levels": {
    "bmi": {
      "1": "Underweight",
      "2": "Normal",
      "3": "Over Weight",
      "4": "Obesity"
    }
  }
}